<svg width="180" height="190" xmlns="http://www.w3.org/2000/svg">
 <!-- Created with SVG-edit - http://svg-edit.googlecode.com/ -->

 <g>
  <title>Layer 1</title>

  <g id="svg_11">
   <g stroke="white" transform="matrix(0.248062 0 0 0.248062 0 0)" id="svg_7">
    <path stroke-dasharray="25,25" stroke-width="22" fill="#dd0000" id="svg_9" d="m329.547,606.48499c-13.77499,-15.43994 -48.16998,-45.53003 -76.43399,-66.88c-83.744,-63.23999 -95.142,-72.39001 -129.1438,-103.69995c-62.68451,-57.72003 -89.30559,-115.71106 -89.21436,-194.341c0.04451,-38.383 2.66077,-53.17102 13.40985,-75.797c18.2367,-38.38605 45.1003,-66.90906 79.4453,-84.354c24.325,-12.35602 36.323,-17.84601 76.944,-18.07001c42.494,-0.23505 51.43901,4.71997 76.43501,18.45197c30.42499,16.71399 61.73999,52.435 68.21298,77.81l3.99899,15.67303l9.85901,-21.58502c55.716,-121.97302 233.599,-120.14801 295.50201,3.03198c19.638,39.07605 21.79401,122.513 4.38098,169.513c-22.716,61.30701 -65.38,108.04706 -164.00699,179.67706c-64.681,46.96997 -137.88501,118.04993 -142.98001,128.02991c-5.91599,11.58008 -0.28299,1.81006 -26.409,-27.45996z" />
    <g id="svg_8"/>
   </g>
  </g>
 </g>
</svg>